{
  "app": {
    "name": "integration-service"
  },
  "consul": {
    "enabled": true,
    "url": "http://localhost:8500",
    "service": "integration-service",
    "address": "docker.for.mac.localhost",
    "port": "5005",
    "pingEnabled": true,
    "pingEndpoint": "ping",
    "pingInterval": 5,
    "removeAfterInterval": 10,
    "requestRetries": 3
  },
  "jaeger": {
    "enabled": true,
    "serviceName": "integration",
    "udpHost": "localhost",
    "udpPort": 6831,
    "maxPacketSize": 0,
    "sampler": "const"
  },
  "elk": {
    "enabled": false,
    "url": "http://localhost:9200",
    "indexFormat": "integration-service-{0:yyyy.MM.dd}",
    "basicAuthEnabled": false,
    "username": "user",
    "password": "secret"
  },
  "fabio": {
    "enabled": true,
    "url": "http://localhost:9999",
    "service": "integration-service",
    "requestRetries": 3
  },
  "metrics": {
    "enabled": true,
    "influxEnabled": false,
    "prometheusEnabled": false,
    "influxUrl": "http://localhost:8086",
    "database": "xsite",
    "env": "local",
    "interval": 5
  },
  "mongo": {
    "connectionString": "mongodb://localhost:27017",
    "database": "integration-service",
    "seed": false
  },
  "rabbitMq": {
    "namespace": "IntegrationAPI",
    "retries": 3,
    "retryInterval": 2,
    "username": "guest",
    "password": "guest",
    "virtualHost": "/",
    "port": 5672,
    "hostnames": [
      "localhost"
    ],
    "requestTimeout": "00:00:10",
    "publishConfirmTimeout": "00:00:01",
    "recoveryInterval": "00:00:10",
    "persistentDeliveryMode": true,
    "autoCloseConnection": true,
    "automaticRecovery": true,
    "topologyRecovery": true,
    "exchange": {
      "durable": true,
      "autoDelete": false,
      "type": "Topic"
    },
    "queue": {
      "autoDelete": false,
      "durable": true,
      "exclusive": false
    }
  },
  "redis": {
    "connectionString": "localhost",
    "instance": "integrationAPI:"
  },
  "serilog": {
    "consoleEnabled": true,
    "level": "information"
  },
  "seq": {
    "enabled": true,
    "url": "http://localhost:5341",
    "token": "secret"
  },
  "swagger": {
    "enabled": true,
    "reDocEnabled": false,
    "name": "v1",
    "title": "integrationAPI",
    "version": "v1",
    "routePrefix": "docs",
    "includeSecurity": true
  },
  "vault": {
    "enabled": false,
    "url": "http://localhost:8200",
    "key": "integration-service/settings",
    "authType": "token",
    "token": "secret",
    "username": "user",
    "password": "secret"
  },
  "RiotDraggonApi": {
    "Host": "https://ddragon.leagueoflegends.com/"
  }
}
